map9v3_tb.vcd
$date
	Tue Jul 14 15:28:20 2020
$end
$version
	Icarus Verilog
$end
$timescale
	1s
$end
$scope module map9v3_tb $end
$var wire 8 ! sr [7:0] $end
$var wire 9 " dp [8:0] $end
$var wire 1 # done $end
$var wire 8 $ counter [7:0] $end
$var reg 9 % N [8:0] $end
$var reg 1 & clock $end
$var reg 1 ' reset $end
$var reg 1 ( start $end
$scope module map9v3_inst $end
$var wire 9 ) N [8:0] $end
$var wire 1 & clock $end
$var wire 1 ' reset $end
$var wire 1 ( start $end
$var reg 8 * counter [7:0] $end
$var reg 1 # done $end
$var reg 9 + dp [8:0] $end
$var reg 8 , sr [7:0] $end
$var reg 2 - startbuf [1:0] $end
$var reg 3 . state [2:0] $end
$upscope $end
$upscope $end
$enddefinitions $end
#0
$dumpvars
b0 .
b0 -
b0 ,
b0 +
b0 *
b11011100 )
0(
1'
0&
b11011100 %
b0 $
0#
b0 "
b0 !
$end
#100
1&
#200
0&
#300
1&
#400
0&
#500
1&
#600
0&
#700
1&
#800
0&
#900
1&
#1000
0&
#1100
1&
#1200
0&
#1300
1&
#1400
0&
#1500
1&
#1600
0&
#1700
1&
#1800
0&
#1900
1&
#2000
0&
#2100
1&
#2200
0&
#2300
1&
#2400
0&
#2500
1&
#2600
0&
#2700
1&
#2800
0&
#2900
1&
#3000
0&
#3100
1&
#3200
0&
#3300
1&
#3400
0&
#3500
1&
#3600
0&
#3700
1&
#3800
0&
#3900
1&
#4000
0&
#4100
1&
#4200
0&
#4300
1&
#4400
0&
#4500
1&
#4600
0&
#4700
1&
#4800
0&
#4900
1&
#5000
0&
#5100
b1 .
b10010100 $
b10010100 *
1&
0'
#5200
0&
#5300
b10010011 $
b10010011 *
b1 !
b1 ,
1&
#5400
0&
#5500
b10010010 $
b10010010 *
b11 !
b11 ,
1&
#5600
0&
#5700
b10010001 $
b10010001 *
b111 !
b111 ,
1&
#5800
0&
#5900
b10010000 $
b10010000 *
b1111 !
b1111 ,
1&
#6000
0&
#6100
b10001111 $
b10001111 *
b11110 !
b11110 ,
1&
#6200
0&
#6300
b10001110 $
b10001110 *
b111101 !
b111101 ,
1&
#6400
0&
#6500
b10001101 $
b10001101 *
b1111010 !
b1111010 ,
1&
#6600
0&
#6700
b10001100 $
b10001100 *
b11110100 !
b11110100 ,
1&
#6800
0&
#6900
b10001011 $
b10001011 *
b11101000 !
b11101000 ,
1&
#7000
0&
#7100
b10001010 $
b10001010 *
b11010000 !
b11010000 ,
1&
#7200
0&
#7300
b10001001 $
b10001001 *
b10100001 !
b10100001 ,
1&
#7400
0&
#7500
b10001000 $
b10001000 *
b1000011 !
b1000011 ,
1&
#7600
0&
#7700
b10000111 $
b10000111 *
b10000111 !
b10000111 ,
1&
#7800
0&
#7900
b10000110 $
b10000110 *
b1110 !
b1110 ,
1&
#8000
0&
#8100
b10000101 $
b10000101 *
b11100 !
b11100 ,
1&
#8200
0&
#8300
b10000100 $
b10000100 *
b111001 !
b111001 ,
1&
#8400
0&
#8500
b10000011 $
b10000011 *
b1110010 !
b1110010 ,
1&
#8600
0&
#8700
b10000010 $
b10000010 *
b11100101 !
b11100101 ,
1&
#8800
0&
#8900
b10000001 $
b10000001 *
b11001011 !
b11001011 ,
1&
#9000
0&
#9100
b10000000 $
b10000000 *
b10010111 !
b10010111 ,
1&
#9200
0&
#9300
b1111111 $
b1111111 *
b101111 !
b101111 ,
1&
#9400
0&
#9500
b1111110 $
b1111110 *
b1011111 !
b1011111 ,
1&
#9600
0&
#9700
b1111101 $
b1111101 *
b10111111 !
b10111111 ,
1&
#9800
0&
#9900
b1111100 $
b1111100 *
b1111111 !
b1111111 ,
1&
#10000
0&
#10100
b1 -
b1111011 $
b1111011 *
b11111110 !
b11111110 ,
1&
1(
#10200
0&
#10300
b11 -
b1111010 $
b1111010 *
b11111101 !
b11111101 ,
1&
#10400
0&
#10500
b1111001 $
b1111001 *
b11111011 !
b11111011 ,
1&
#10600
0&
#10700
b1111000 $
b1111000 *
b11110111 !
b11110111 ,
1&
#10800
0&
#10900
b1110111 $
b1110111 *
b11101110 !
b11101110 ,
1&
#11000
0&
#11100
b1110110 $
b1110110 *
b11011100 !
b11011100 ,
1&
#11200
0&
#11300
b1110101 $
b1110101 *
b10111000 !
b10111000 ,
1&
#11400
0&
#11500
b1110100 $
b1110100 *
b1110001 !
b1110001 ,
1&
#11600
0&
#11700
b1110011 $
b1110011 *
b11100011 !
b11100011 ,
1&
#11800
0&
#11900
b1110010 $
b1110010 *
b11000111 !
b11000111 ,
1&
#12000
0&
#12100
b1110001 $
b1110001 *
b10001110 !
b10001110 ,
1&
#12200
0&
#12300
b1110000 $
b1110000 *
b11101 !
b11101 ,
1&
#12400
0&
#12500
b1101111 $
b1101111 *
b111011 !
b111011 ,
1&
#12600
0&
#12700
b1101110 $
b1101110 *
b1110110 !
b1110110 ,
1&
#12800
0&
#12900
b1101101 $
b1101101 *
b11101101 !
b11101101 ,
1&
#13000
0&
#13100
b1101100 $
b1101100 *
b11011010 !
b11011010 ,
1&
#13200
0&
#13300
b1101011 $
b1101011 *
b10110100 !
b10110100 ,
1&
#13400
0&
#13500
b1101010 $
b1101010 *
b1101000 !
b1101000 ,
1&
#13600
0&
#13700
b1101001 $
b1101001 *
b11010001 !
b11010001 ,
1&
#13800
0&
#13900
b1101000 $
b1101000 *
b10100011 !
b10100011 ,
1&
#14000
0&
#14100
b1100111 $
b1100111 *
b1000111 !
b1000111 ,
1&
#14200
0&
#14300
b1100110 $
b1100110 *
b10001111 !
b10001111 ,
1&
#14400
0&
#14500
b1100101 $
b1100101 *
b11111 !
b11111 ,
1&
#14600
0&
#14700
b1100100 $
b1100100 *
b111111 !
b111111 ,
1&
#14800
0&
#14900
b1100011 $
b1100011 *
b1111110 !
b1111110 ,
1&
#15000
0&
#15100
b10 -
b1100010 $
b1100010 *
b11111100 !
b11111100 ,
1&
0(
#15200
0&
#15300
b0 -
b1100001 $
b1100001 *
b11111001 !
b11111001 ,
1&
#15400
0&
#15500
b1100000 $
b1100000 *
b11110011 !
b11110011 ,
1&
#15600
0&
#15700
b1011111 $
b1011111 *
b11100110 !
b11100110 ,
1&
#15800
0&
#15900
b1011110 $
b1011110 *
b11001101 !
b11001101 ,
1&
#16000
0&
#16100
b1011101 $
b1011101 *
b10011011 !
b10011011 ,
1&
#16200
0&
#16300
b1011100 $
b1011100 *
b110110 !
b110110 ,
1&
#16400
0&
#16500
b1011011 $
b1011011 *
b1101101 !
b1101101 ,
1&
#16600
0&
#16700
b1011010 $
b1011010 *
b11011011 !
b11011011 ,
1&
#16800
0&
#16900
b1011001 $
b1011001 *
b10110110 !
b10110110 ,
1&
#17000
0&
#17100
b1011000 $
b1011000 *
b1101100 !
b1101100 ,
1&
#17200
0&
#17300
b1010111 $
b1010111 *
b11011001 !
b11011001 ,
1&
#17400
0&
#17500
b1010110 $
b1010110 *
b10110010 !
b10110010 ,
1&
#17600
0&
#17700
b1010101 $
b1010101 *
b1100100 !
b1100100 ,
1&
#17800
0&
#17900
b1010100 $
b1010100 *
b11001000 !
b11001000 ,
1&
#18000
0&
#18100
b1010011 $
b1010011 *
b10010001 !
b10010001 ,
1&
#18200
0&
#18300
b1010010 $
b1010010 *
b100011 !
b100011 ,
1&
#18400
0&
#18500
b1010001 $
b1010001 *
b1000110 !
b1000110 ,
1&
#18600
0&
#18700
b1010000 $
b1010000 *
b10001101 !
b10001101 ,
1&
#18800
0&
#18900
b1001111 $
b1001111 *
b11011 !
b11011 ,
1&
#19000
0&
#19100
b1001110 $
b1001110 *
b110111 !
b110111 ,
1&
#19200
0&
#19300
b1001101 $
b1001101 *
b1101111 !
b1101111 ,
1&
#19400
0&
#19500
b1001100 $
b1001100 *
b11011111 !
b11011111 ,
1&
#19600
0&
#19700
b1001011 $
b1001011 *
b10111110 !
b10111110 ,
1&
#19800
0&
#19900
b1001010 $
b1001010 *
b1111101 !
b1111101 ,
1&
#20000
0&
#20100
b1001001 $
b1001001 *
b11111010 !
b11111010 ,
1&
#20200
0&
#20300
b1001000 $
b1001000 *
b11110101 !
b11110101 ,
1&
#20400
0&
#20500
b1000111 $
b1000111 *
b11101010 !
b11101010 ,
1&
#20600
0&
#20700
b1000110 $
b1000110 *
b11010100 !
b11010100 ,
1&
#20800
0&
#20900
b1000101 $
b1000101 *
b10101001 !
b10101001 ,
1&
#21000
0&
#21100
b1000100 $
b1000100 *
b1010010 !
b1010010 ,
1&
#21200
0&
#21300
b1000011 $
b1000011 *
b10100100 !
b10100100 ,
1&
#21400
0&
#21500
b1000010 $
b1000010 *
b1001001 !
b1001001 ,
1&
#21600
0&
#21700
b1000001 $
b1000001 *
b10010010 !
b10010010 ,
1&
#21800
0&
#21900
b1000000 $
b1000000 *
b100101 !
b100101 ,
1&
#22000
0&
#22100
b111111 $
b111111 *
b1001010 !
b1001010 ,
1&
#22200
0&
#22300
b111110 $
b111110 *
b10010100 !
b10010100 ,
1&
#22400
0&
#22500
b111101 $
b111101 *
b101001 !
b101001 ,
1&
#22600
0&
#22700
b111100 $
b111100 *
b1010011 !
b1010011 ,
1&
#22800
0&
#22900
b111011 $
b111011 *
b10100110 !
b10100110 ,
1&
#23000
0&
#23100
b111010 $
b111010 *
b1001101 !
b1001101 ,
1&
#23200
0&
#23300
b111001 $
b111001 *
b10011010 !
b10011010 ,
1&
#23400
0&
#23500
b111000 $
b111000 *
b110100 !
b110100 ,
1&
#23600
0&
#23700
b110111 $
b110111 *
b1101001 !
b1101001 ,
1&
#23800
0&
#23900
b110110 $
b110110 *
b11010011 !
b11010011 ,
1&
#24000
0&
#24100
b110101 $
b110101 *
b10100111 !
b10100111 ,
1&
#24200
0&
#24300
b110100 $
b110100 *
b1001111 !
b1001111 ,
1&
#24400
0&
#24500
b110011 $
b110011 *
b10011110 !
b10011110 ,
1&
#24600
0&
#24700
b110010 $
b110010 *
b111100 !
b111100 ,
1&
#24800
0&
#24900
b110001 $
b110001 *
b1111000 !
b1111000 ,
1&
#25000
0&
#25100
b110000 $
b110000 *
b11110000 !
b11110000 ,
1&
#25200
0&
#25300
b101111 $
b101111 *
b11100000 !
b11100000 ,
1&
#25400
0&
#25500
b101110 $
b101110 *
b11000001 !
b11000001 ,
1&
#25600
0&
#25700
b101101 $
b101101 *
b10000010 !
b10000010 ,
1&
#25800
0&
#25900
b101100 $
b101100 *
b100 !
b100 ,
1&
#26000
0&
#26100
b101011 $
b101011 *
b1001 !
b1001 ,
1&
#26200
0&
#26300
b101010 $
b101010 *
b10010 !
b10010 ,
1&
#26400
0&
#26500
b101001 $
b101001 *
b100100 !
b100100 ,
1&
#26600
0&
#26700
b101000 $
b101000 *
b1001000 !
b1001000 ,
1&
#26800
0&
#26900
b100111 $
b100111 *
b10010000 !
b10010000 ,
1&
#27000
0&
#27100
b100110 $
b100110 *
b100001 !
b100001 ,
1&
#27200
0&
#27300
b100101 $
b100101 *
b1000010 !
b1000010 ,
1&
#27400
0&
#27500
b100100 $
b100100 *
b10000101 !
b10000101 ,
1&
#27600
0&
#27700
b100011 $
b100011 *
b1010 !
b1010 ,
1&
#27800
0&
#27900
b100010 $
b100010 *
b10100 !
b10100 ,
1&
#28000
0&
#28100
b100001 $
b100001 *
b101000 !
b101000 ,
1&
#28200
0&
#28300
b100000 $
b100000 *
b1010001 !
b1010001 ,
1&
#28400
0&
#28500
b11111 $
b11111 *
b10100010 !
b10100010 ,
1&
#28600
0&
#28700
b11110 $
b11110 *
b1000101 !
b1000101 ,
1&
#28800
0&
#28900
b11101 $
b11101 *
b10001011 !
b10001011 ,
1&
#29000
0&
#29100
b11100 $
b11100 *
b10111 !
b10111 ,
1&
#29200
0&
#29300
b11011 $
b11011 *
b101110 !
b101110 ,
1&
#29400
0&
#29500
b11010 $
b11010 *
b1011101 !
b1011101 ,
1&
#29600
0&
#29700
b11001 $
b11001 *
b10111011 !
b10111011 ,
1&
#29800
0&
#29900
b11000 $
b11000 *
b1110111 !
b1110111 ,
1&
#30000
0&
#30100
b10111 $
b10111 *
b11101111 !
b11101111 ,
1&
#30200
0&
#30300
b10110 $
b10110 *
b11011110 !
b11011110 ,
1&
#30400
0&
#30500
b10101 $
b10101 *
b10111100 !
b10111100 ,
1&
#30600
0&
#30700
b10100 $
b10100 *
b1111001 !
b1111001 ,
1&
#30800
0&
#30900
b10011 $
b10011 *
b11110010 !
b11110010 ,
1&
#31000
0&
#31100
b10010 $
b10010 *
b11100100 !
b11100100 ,
1&
#31200
0&
#31300
b10001 $
b10001 *
b11001001 !
b11001001 ,
1&
#31400
0&
#31500
b10000 $
b10000 *
b10010011 !
b10010011 ,
1&
#31600
0&
#31700
b1111 $
b1111 *
b100111 !
b100111 ,
1&
#31800
0&
#31900
b1110 $
b1110 *
b1001110 !
b1001110 ,
1&
#32000
0&
#32100
b1101 $
b1101 *
b10011100 !
b10011100 ,
1&
#32200
0&
#32300
b1100 $
b1100 *
b111000 !
b111000 ,
1&
#32400
0&
#32500
b1011 $
b1011 *
b1110000 !
b1110000 ,
1&
#32600
0&
#32700
b1010 $
b1010 *
b11100001 !
b11100001 ,
1&
#32800
0&
#32900
b1001 $
b1001 *
b11000011 !
b11000011 ,
1&
#33000
0&
#33100
b1000 $
b1000 *
b10000110 !
b10000110 ,
1&
#33200
0&
#33300
b111 $
b111 *
b1100 !
b1100 ,
1&
#33400
0&
#33500
b110 $
b110 *
b11000 !
b11000 ,
1&
#33600
0&
#33700
b101 $
b101 *
b110001 !
b110001 ,
1&
#33800
0&
#33900
b100 $
b100 *
b1100011 !
b1100011 ,
1&
#34000
0&
#34100
b11 $
b11 *
b11000110 !
b11000110 ,
1&
#34200
0&
#34300
b10 $
b10 *
b10001100 !
b10001100 ,
1&
#34400
0&
#34500
b1 $
b1 *
b11001 !
b11001 ,
1&
#34600
0&
#34700
b0 $
b0 *
b110011 !
b110011 ,
1&
#34800
0&
#34900
b10 .
b11111111 $
b11111111 *
b1100111 !
b1100111 ,
1&
#35000
0&
#35100
b11 .
b11001110 "
b11001110 +
1&
#35200
0&
#35300
b100 .
1#
1&
